{
  "jira.server.url" : "http://localhost:8080",
  "jira.auth.token" : "cHJlY29tbWl0Omxld********",
  "jira.notify.email" : "true",
  "jira.issue.patterns" : [
    "\\b(\\S+-\\d+)\\b",
    "(\\[\\S+-\\d+\\])",
    "(\\(\\S+-\\d+\\))",
    "(\\[JIRA\\s+\\S+-\\d+\\])"
  ],
  "collaborator.web" : "http://localhost:8085/ui#review:id={0}"
}
